^C:\USERS\ARTEM\SOURCE\REPOS\PROJECT1\HELPERS.CPP|C:\USERS\ARTEM\SOURCE\REPOS\PROJECT1\MAIN.CPP
C:\USERS\ARTEM\SOURCE\REPOS\PROJECT1\X64\DEBUG\VC143.PDB
C:\USERS\ARTEM\SOURCE\REPOS\PROJECT1\X64\DEBUG\VC143.IDB
C:\USERS\ARTEM\SOURCE\REPOS\PROJECT1\X64\DEBUG\MAIN.OBJ
C:\USERS\ARTEM\SOURCE\REPOS\PROJECT1\X64\DEBUG\HELPERS.OBJ
^C:\USERS\ARTEM\SOURCE\REPOS\PROJECT1\HELPERS.CPP
C:\USERS\ARTEM\SOURCE\REPOS\PROJECT1\X64\DEBUG\VC143.PDB
^C:\USERS\ARTEM\SOURCE\REPOS\PROJECT1\MAIN.CPP
C:\USERS\ARTEM\SOURCE\REPOS\PROJECT1\X64\DEBUG\VC143.PDB
C:\USERS\ARTEM\SOURCE\REPOS\PROJECT1\X64\DEBUG\VC143.IDB
C:\USERS\ARTEM\SOURCE\REPOS\PROJECT1\X64\DEBUG\MAIN.OBJ
