^C:\USERS\ARTEM\SOURCE\REPOS\PROJECT1\X64\DEBUG\HELPERS.OBJ|C:\USERS\ARTEM\SOURCE\REPOS\PROJECT1\X64\DEBUG\MAIN.OBJ
/OUT:"C:\USERS\ARTEM\SOURCE\REPOS\PROJECT1\X64\DEBUG\PROJECT1.EXE" /INCREMENTAL /ILK:"X64\DEBUG\PROJECT1.ILK" /NOLOGO KERNEL32.LIB USER32.LIB GDI32.LIB WINSPOOL.LIB COMDLG32.LIB ADVAPI32.LIB SHELL32.LIB OLE32.LIB OLEAUT32.LIB UUID.LIB ODBC32.LIB ODBCCP32.LIB /MANIFEST /MANIFESTUAC:"level='asInvoker' uiAccess='false'" /manifest:embed /DEBUG /PDB:"C:\USERS\ARTEM\SOURCE\REPOS\PROJECT1\X64\DEBUG\PROJECT1.PDB" /SUBSYSTEM:CONSOLE /TLBID:1 /DYNAMICBASE /NXCOMPAT /IMPLIB:"C:\USERS\ARTEM\SOURCE\REPOS\PROJECT1\X64\DEBUG\PROJECT1.LIB" /MACHINE:X64 X64\DEBUG\MAIN.OBJ
X64\DEBUG\HELPERS.OBJ
